{
  "project_info": {
    "project_number": "1015441992444",
    "firebase_url": "https://salon-5a030.firebaseio.com",
    "project_id": "salon-5a030",
    "storage_bucket": "salon-5a030.appspot.com"
  },
  "client": [
    {
      "client_info": {
        "mobilesdk_app_id": "1:1015441992444:android:abd07d1d946659b7d74579",
        "android_client_info": {
          "package_name": "com.zeeshan.salon"
        }
      },
      "oauth_client": [
        {
          "client_id": "1015441992444-gt3hg62vbae9d8bjv2gavolrahpa2q2v.apps.googleusercontent.com",
          "client_type": 1,
          "android_info": {
            "package_name": "com.zeeshan.salon",
            "certificate_hash": "886113f8da5aabe0cd815145ae53c51a32d1cfcc"
          }
        },
        {
          "client_id": "1015441992444-b65orsmat1vnu9a2905obdt7r6hn94nk.apps.googleusercontent.com",
          "client_type": 3
        }
      ],
      "api_key": [
        {
          "current_key": "AIzaSyAM1EZkCbxGghctUepQ6KgiXGMzk28vNHc"
        }
      ],
      "services": {
        "appinvite_service": {
          "other_platform_oauth_client": [
            {
              "client_id": "1015441992444-b65orsmat1vnu9a2905obdt7r6hn94nk.apps.googleusercontent.com",
              "client_type": 3
            }
          ]
        }
      }
    }
  ],
  "configuration_version": "1"
}