{
  "project_info": {
    "project_number": "701851896098",
    "firebase_url": "https://foodloo.firebaseio.com",
    "project_id": "foodloo",
    "storage_bucket": "foodloo.appspot.com"
  },
  "client": [
    {
      "client_info": {
        "mobilesdk_app_id": "1:701851896098:android:2b867c8e853cfc83",
        "android_client_info": {
          "package_name": "tech.soft.ehs.cfoodloo"
        }
      },
      "oauth_client": [
        {
          "client_id": "701851896098-977e5g3ai9qnujd6r478a5to5okss182.apps.googleusercontent.com",
          "client_type": 1,
          "android_info": {
            "package_name": "tech.soft.ehs.cfoodloo",
            "certificate_hash": "9612305c33d79540d3da9f690aa1f6638c20b60c"
          }
        },
        {
          "client_id": "701851896098-392pcn5ip9m58cuq0idhs0sqs87hidra.apps.googleusercontent.com",
          "client_type": 3
        }
      ],
      "api_key": [
        {
          "current_key": "AIzaSyCcYdje5U3yIJCxwXW8k15D8mMuLN27wsw"
        }
      ],
      "services": {
        "analytics_service": {
          "status": 1
        },
        "appinvite_service": {
          "status": 2,
          "other_platform_oauth_client": [
            {
              "client_id": "701851896098-392pcn5ip9m58cuq0idhs0sqs87hidra.apps.googleusercontent.com",
              "client_type": 3
            }
          ]
        },
        "ads_service": {
          "status": 2
        }
      }
    }
  ],
  "configuration_version": "1"
}