{
  "project_info": {
    "project_number": "403986245846",
    "firebase_url": "https://beautylinks-778d3.firebaseio.com",
    "project_id": "beautylinks-778d3",
    "storage_bucket": "beautylinks-778d3.appspot.com"
  },
  "client": [
    {
      "client_info": {
        "mobilesdk_app_id": "1:403986245846:android:fda1186e8a76639fc38177",
        "android_client_info": {
          "package_name": "hsdeveloper.beautylinks"
        }
      },
      "oauth_client": [
        {
          "client_id": "403986245846-e7jt2k7b16829i77ean6o4epm7knqgl6.apps.googleusercontent.com",
          "client_type": 1,
          "android_info": {
            "package_name": "hsdeveloper.beautylinks",
            "certificate_hash": "9612305c33d79540d3da9f690aa1f6638c20b60c"
          }
        },
        {
          "client_id": "403986245846-vc1c9if5dc4d1a8pm0crats3akukau1g.apps.googleusercontent.com",
          "client_type": 3
        }
      ],
      "api_key": [
        {
          "current_key": "AIzaSyCc07z1nwYuI3oNwF-rAdjLqL2Q3sDNyXY"
        }
      ],
      "services": {
        "appinvite_service": {
          "other_platform_oauth_client": [
            {
              "client_id": "403986245846-vc1c9if5dc4d1a8pm0crats3akukau1g.apps.googleusercontent.com",
              "client_type": 3
            }
          ]
        }
      }
    }
  ],
  "configuration_version": "1"
}